<?xml version="1.0" encoding="utf-8"?>
<!-- Generator: Adobe Illustrator 23.0.0, SVG Export Plug-In . SVG Version: 6.00 Build 0)  -->
<svg version="1.1" id="Capa_1" xmlns="http://www.w3.org/2000/svg" xmlns:xlink="http://www.w3.org/1999/xlink" x="0px" y="0px"
	 viewBox="0 0 242.9 53.4" style="enable-background:new 0 0 242.9 53.4;" xml:space="preserve">
<style type="text/css">
	.st0{fill:#000035;}
	.st1{fill:#C65839;}
</style>
<g>
	<path class="st0" d="M1.1,14.8c0.1-0.3,0.2-0.6,0.3-0.8c1.4-5.5,5.7-8.8,11-8.5c5.7,0.4,9.2,3.6,9.8,9.6c0.4,4.1,0.1,8.3,0.1,12.4
		c0,0.7,0,1.3,0,2.4c-0.5,0.8-0.2,0.3,1.1-1.7c3.5-5.2,4.6-6.3,7.9-11.6c0.8-1.3,1.5-1.8,2.9-1.7c1.5,0.1,3,0,4.6,0
		c0.3,7,0.7,9.5,0.9,16.7c3.4-3.4,6-6.8,7.8-10.7c1.2-2.7,2-5.6,2.8-8.4c0.2-0.7,0.3-1.4,0-2.1s-0.9-1.2-1.2-1.9
		c-0.4-1-0.2-2.1,0.5-2.9c0.9-1.2,3-1.9,4.3-1.1c1,0.6,1.5,1.9,1.8,2.9c0.8,3.8-0.5,7.8-2,11.3C51,25.1,47,30.4,42.1,35.2
		c-2.4,2.4-5.1,3.4-8.6,2.5c-0.3-6.9-0.6-8.4-0.9-14.1c-0.1,0-0.3-0.1-0.4-0.1c-0.5,0.9-0.9,1.8-1.5,2.6c-3.2,4.7-4,5.4-7.4,10.7
		c-0.6,0.9-1,1.3-2.1,1.3c-1.7-0.1-3.4,0-5.4,0c0-0.7,0-1.4,0-2c0.1-6.2,0.4-12.3,0.4-18.5c0-1.5-0.3-3.2-0.9-4.6
		c-0.9-2.3-3-3.3-5.2-2.7c-2.1,0.6-3.4,2.6-3.2,4.9c0.2,2.3,1.7,3.7,4.1,4c0.2,0,0.3,0.1,0.7,0.1c0.4,2,0.8,4.1,1.2,6.1
		c-4.9,1.3-9.3-1.1-11-5.8c-0.2-0.7-0.5-1.4-0.7-2C1.1,16.7,1.1,15.7,1.1,14.8z"/>
	<path class="st0" d="M150.2,15.3c-1.1,3.9-2.2,7.4-3.2,10.9c-0.5,1.6-1,3.1-1.3,4.7c-0.2,0.9,0,2.5,0.4,2.6
		c0.9,0.3,2.2,0.2,2.9-0.3c2.4-1.8,4-4.2,4.6-7.2c1.3-6.3,5.7-10.7,11.6-11.1c1.8-0.1,3.8,0.3,5.5,1.1c3.1,1.4,4.2,5.4,2.7,8.2
		c-1.1,2-3.4,2.8-5.2,1.7c-1.8-1-2.3-3.2-1.2-5.2c0.1-0.3,0.3-0.5,0.5-0.8c-1.7-0.6-3.1,0-4.2,1.1c-2.7,2.4-3.7,5.5-2.9,9.1
		c0.6,3.1,3.7,4.8,7.2,3.9c4.9-1.3,8-4.7,9.6-9.5c1.7-5.1,3.2-10.3,4.6-15.6c0.5-1.8,1.3-2.5,3.1-2.2c1.2,0.2,2.5,0,4,0
		c-1.1,3.7-2.1,7.2-3.2,10.9c1.3-0.8,2.3-1.6,3.4-2.1c4.3-1.9,8.1,0.6,8.1,5.4c0,1.6-0.5,3.1-0.8,4.6c-0.5,2.1-1.3,4.2-1.8,6.3
		c-0.1,0.6,0,1.6,0.3,1.8c0.5,0.3,1.5,0.2,1.9-0.2c0.9-0.7,1.8-1.6,2.5-2.6c2.6-3.3,3.6-7.3,4.7-11.2c1.3-4.6,1.4-4.6,6.1-4.5
		c0.5,0,0.9,0.1,1.6,0.1c-0.5,1.6-0.9,3.1-1.3,4.6c-1.1,3.6-2.2,7.2-3.1,10.9c-0.2,0.9,0,2.5,0.5,2.7c0.8,0.3,2.2,0.1,2.9-0.4
		c2.3-1.8,3.9-4.2,4.5-7.2c1.2-6.2,5.7-10.6,11.6-11c1.9-0.1,4.1,0.4,5.8,1.2c2.9,1.4,3.9,5.1,2.6,7.8c-1,2.2-3.3,3-5.2,2
		s-2.4-3.2-1.2-5.4c0.1-0.2,0.2-0.4,0.5-0.7c-1.7-0.6-2.9,0-4.1,0.9c-2.6,2-4,6.1-3.1,9.4c0.8,3,3.7,4.5,7.2,3.8
		c3.9-0.9,6.5-3.5,8.5-6.8c1.2-2,1.5-2.1,3.3-0.4c-2.7,7.8-9.4,12.5-17,11.8c-3.9-0.3-5.8-1.6-8.3-5.5c-1.2,1.1-2.4,2.4-3.9,3.3
		c-1.5,0.9-3.3,1.8-5,2c-3.3,0.4-4.8-0.8-6-4.2c-0.6,0.6-1.1,1.2-1.7,1.6c-1,0.7-2,1.6-3.1,2.1c-4.7,2.1-8.1-0.4-7.5-5.6
		c0.2-2.2,1.1-4.4,1.6-6.5c0.2-0.8,0.6-1.5,0.6-2.3c0-0.9-0.1-2.3-0.7-2.6c-0.8-0.4-2.3-0.5-2.9,0c-1.3,1-2.6,2.3-3.1,3.7
		c-1.6,4.4-2.8,8.9-4.1,13.5c-2.1,0-4.1,0-6.3,0c0.3-1,0.5-1.9,0.8-3.3c-3.4,2.8-6.9,4.1-10.9,3.9c-4.2-0.2-7.5-1.9-9.1-5.6
		c-1.2,1.1-2.4,2.4-3.8,3.3c-1.5,0.9-3.2,1.8-4.8,2.1c-3.3,0.5-5-0.7-6.3-4.3c-0.6,0.6-1.2,1.2-1.8,1.7c-0.8,0.6-1.6,1.3-2.5,1.8
		c-2.1,1-4.4,1.5-6.5-0.1c-1.9-1.5-2-3.7-1.6-5.8c0.5-2.6,1.3-5.1,1.9-7.6c0.3-1.3,0.7-2.8-0.8-3.6c-1.4-0.8-2.7-0.1-3.7,1.1
		c-0.8,1-1.6,2.2-2,3.4c-1.3,3.9-2.4,7.9-3.6,11.9c-0.3,0.9-0.6,1.3-1.6,1.3c-1.7-0.1-3.3,0-5.2,0c1.3-4.2,2.5-8.2,3.6-12.2
		c0.3-1.1,0.6-2.3,0.6-3.4c0-1.7-1.1-2.6-2.8-2c-2,0.6-3.1,2.1-3.7,4.1c-1.4,4.5-2.7,8.9-4.1,13.5c-2.1,0-4.1,0-6.2,0
		c0.1-0.7,0.2-1.4,0.3-1.9c-1.6,0.8-3.1,1.7-4.7,2.2c-3.8,1.1-6.4-1.1-6.3-5.1c0-1.4,0.4-2.9,0.8-4.3c0.3-1.2,0.7-2.3,1-3.5
		c1-3.3,0.6-3.9-2.7-4.9c-1.2,2.7-2.3,5.5-3.8,8c-1.6,2.7-3.6,5.3-5.6,7.7c-0.9,1-2.4,1.6-3.7,2.1c-3,1-5-0.1-6.5-3
		c-0.8,0.6-1.5,1.2-2.2,1.7c-2.7,1.8-5.6,2.2-8.5,0.8s-3.8-4.1-3.8-7.2c0-5.6,2-10.4,6.5-13.8c2-1.5,4.3-2.2,6.9-1.8
		c2.2,0.3,3.6,1.7,5.1,4c-0.1-4.1,2.2-4,4.6-3.8c0.8,0.1,1.5,0,2.5,0c-0.2,0.8-0.3,1.5-0.5,2.1c-1.3,4.4-2.6,8.9-3.9,13.3
		c-0.2,0.6-0.3,1.2-0.4,1.8c-0.1,1.4,0.7,2,1.9,1.3c1-0.5,2-1.3,2.5-2.3c2.1-3.9,4.1-7.8,6-11.8c0.2-0.5-0.2-1.3-0.5-1.9
		c-0.8-1.7-1-3.3,0.1-4.8c1-1.5,2.5-1.8,4.1-1.4c1.8,0.4,2.4,1.5,1.8,3.3c-0.2,0.6-0.4,1.2-0.6,1.8c1.7,0.9,3.3,1.6,4.8,2.6
		c2.1,1.3,2.9,3.3,2.3,5.8c-0.6,2.1-1.2,4.2-1.7,6.3c-0.2,0.8,0.2,1.7,0.3,2.5c0.8-0.2,1.8-0.3,2.4-0.8c2.6-2.4,4.2-5.4,5.4-8.7
		c0.9-2.5,1.6-5.1,2.3-7.7c0.3-1.1,0.8-1.4,1.9-1.4c1.5,0.1,3.1,0,4.8,0c-0.1,0.9-0.3,1.6-0.4,2.3c6.2-3.8,8.9-3.7,11.1,0.4
		c1.9-1,3.6-2.4,5.6-2.9c4.9-1.3,8.3,2.2,7.1,7.3c-0.7,3-1.7,5.8-2.4,8.8c-0.2,0.8,0.1,1.7,0.2,2.5c0.9-0.3,1.9-0.3,2.6-0.8
		c2.6-2.3,4.1-5.3,5.2-8.6c0.8-2.5,1.6-5.1,2.3-7.7c0.3-1.2,0.9-1.5,2-1.5C146.8,15.3,148.3,15.3,150.2,15.3z M60.2,29.9
		c0.3,0.6,0.8,2,1.7,2.7c1.2,1,2.8,0.5,4-0.5c2.5-1.9,3.7-4.6,3.7-7.8c0-3-2.6-4.4-5.1-2.9C61.8,23.3,60.6,26,60.2,29.9z"/>
	<path class="st0" d="M152.6,8.9c0,2.2-1.6,3.7-3.8,3.7c-2.1,0-3.7-1.7-3.6-3.9c0.1-2.2,1.8-3.9,3.8-3.8
		C151.1,5,152.7,6.8,152.6,8.9z"/>
	<path class="st0" d="M214.2,8.8c0,2.2-1.6,3.8-3.7,3.8c-2.2,0-3.7-1.6-3.7-3.8c0-2.2,1.7-3.9,3.7-3.9C212.6,5,214.2,6.7,214.2,8.8z
		"/>
</g>
<g>
	<path class="st1" d="M34,46.7c0.3-0.1,0.8-0.1,1.3-0.1c0.7,0,1.2,0.1,1.5,0.4c0.3,0.2,0.5,0.6,0.5,1s-0.1,0.8-0.4,1.1
		c-0.4,0.4-1,0.5-1.6,0.5c-0.2,0-0.4,0-0.6,0v2H34V46.7z M34.7,49c0.1,0,0.3,0.1,0.6,0.1c0.8,0,1.3-0.4,1.3-1c0-0.7-0.5-1-1.2-1
		c-0.3,0-0.5,0-0.6,0.1L34.7,49L34.7,49z"/>
	<path class="st1" d="M46,46.7c0.3-0.1,0.8-0.1,1.3-0.1c0.7,0,1.2,0.1,1.5,0.4c0.3,0.2,0.4,0.6,0.4,0.9c0,0.6-0.4,1.1-1,1.2l0,0
		c0.4,0.1,0.6,0.5,0.8,1c0.2,0.7,0.3,1.2,0.4,1.4h-0.7c-0.1-0.1-0.2-0.6-0.3-1.2c-0.2-0.7-0.4-0.9-1.1-1h-0.6v2.1H46
		C46,51.4,46,46.7,46,46.7z M46.7,48.9h0.7c0.7,0,1.2-0.4,1.2-0.9c0-0.6-0.5-0.9-1.2-0.9c-0.3,0-0.6,0-0.7,0.1V48.9z"/>
	<path class="st1" d="M60.8,49.2h-2.1V51H61v0.5h-3v-4.9h2.9v0.5h-2.2v1.6h2.1C60.8,48.7,60.8,49.2,60.8,49.2z"/>
	<path class="st1" d="M69.8,51.5v-4.9h0.8l1.7,2.5c0.4,0.6,0.7,1.1,0.9,1.6l0,0c-0.1-0.7-0.1-1.3-0.1-2v-2.1h0.6v4.9H73L71.3,49
		c-0.4-0.5-0.7-1.1-1-1.6l0,0c0,0.6,0,1.2,0,2v2.1H69.8z"/>
	<path class="st1" d="M82.9,46.7c0.4-0.1,0.9-0.1,1.5-0.1c1,0,1.7,0.2,2.1,0.6c0.5,0.4,0.8,1,0.8,1.8s-0.3,1.5-0.8,1.9
		c-0.5,0.5-1.3,0.7-2.3,0.7c-0.5,0-0.9,0-1.2-0.1L82.9,46.7L82.9,46.7z M83.5,51c0.2,0,0.4,0,0.7,0c1.5,0,2.3-0.8,2.3-2.1
		c0-1.2-0.7-1.9-2.1-1.9c-0.4,0-0.6,0-0.8,0.1L83.5,51L83.5,51z"/>
	<path class="st1" d="M96.7,50l-0.6,1.5h-0.7l1.8-4.9H98l1.8,4.9h-0.7L98.5,50H96.7z M98.4,49.5l-0.5-1.4c-0.1-0.3-0.2-0.6-0.3-0.9
		l0,0c-0.1,0.3-0.2,0.6-0.3,0.9l-0.5,1.4H98.4z"/>
	<path class="st1" d="M108.4,50.7c0.3,0.2,0.7,0.3,1.2,0.3c0.7,0,1.1-0.3,1.1-0.8s-0.3-0.7-1-1c-0.9-0.3-1.4-0.7-1.4-1.4
		c0-0.8,0.7-1.3,1.7-1.3c0.5,0,0.9,0.1,1.2,0.2l-0.2,0.5c-0.2-0.1-0.5-0.2-1-0.2c-0.7,0-1,0.4-1,0.7c0,0.5,0.3,0.7,1.1,0.9
		c0.9,0.3,1.3,0.7,1.3,1.4c0,0.8-0.6,1.4-1.8,1.4c-0.5,0-1.1-0.1-1.4-0.3L108.4,50.7z"/>
	<path class="st1" d="M123.9,51.4c-0.2,0.1-0.8,0.2-1.4,0.2c-1.5,0-2.6-0.9-2.6-2.5c0-1.5,1.1-2.6,2.8-2.6c0.7,0,1.1,0.1,1.3,0.2
		l-0.2,0.5c-0.3-0.1-0.6-0.2-1.1-0.2c-1.2,0-2.1,0.7-2.1,2c0,1.2,0.7,2,2,2c0.4,0,0.8-0.1,1.1-0.2L123.9,51.4z"/>
	<path class="st1" d="M137,49c0,1.7-1.1,2.6-2.5,2.6s-2.4-1-2.4-2.5c0-1.6,1-2.6,2.5-2.6C136.1,46.5,137,47.5,137,49z M132.9,49.1
		c0,1.1,0.6,2,1.7,2c1.1,0,1.7-0.9,1.7-2c0-1-0.5-2-1.7-2S132.9,48,132.9,49.1z"/>
	<path class="st1" d="M145.7,51.5v-4.9h0.8l1.7,2.5c0.4,0.6,0.7,1.1,0.9,1.6l0,0c-0.1-0.7-0.1-1.3-0.1-2v-2.1h0.6v4.9h-0.7l-1.7-2.5
		c-0.4-0.5-0.7-1.1-1-1.6l0,0c0,0.6,0,1.2,0,2v2.1H145.7z"/>
	<path class="st1" d="M158.8,46.7c0.3-0.1,0.8-0.1,1.3-0.1c0.7,0,1.2,0.1,1.5,0.4c0.3,0.2,0.5,0.6,0.5,1s-0.1,0.8-0.4,1.1
		c-0.4,0.4-1,0.5-1.6,0.5c-0.2,0-0.4,0-0.5,0v2h-0.7v-4.9H158.8z M159.4,49c0.1,0,0.3,0.1,0.6,0.1c0.8,0,1.3-0.4,1.3-1
		c0-0.7-0.5-1-1.2-1c-0.3,0-0.5,0-0.6,0.1V49H159.4z"/>
	<path class="st1" d="M175.3,49c0,1.7-1.1,2.6-2.5,2.6s-2.4-1-2.4-2.5c0-1.6,1-2.6,2.5-2.6S175.3,47.5,175.3,49z M171.2,49.1
		c0,1.1,0.6,2,1.7,2c1.1,0,1.7-0.9,1.7-2c0-1-0.5-2-1.7-2C171.8,47,171.2,48,171.2,49.1z"/>
	<path class="st1" d="M184.1,46.7c0.4-0.1,0.9-0.1,1.5-0.1c1,0,1.7,0.2,2.1,0.6c0.5,0.4,0.8,1,0.8,1.8s-0.3,1.5-0.8,1.9
		c-0.5,0.5-1.3,0.7-2.3,0.7c-0.5,0-0.9,0-1.2-0.1v-4.8H184.1z M184.7,51c0.2,0,0.4,0,0.7,0c1.5,0,2.3-0.8,2.3-2.1
		c0-1.2-0.7-1.9-2.1-1.9c-0.4,0-0.6,0-0.8,0.1L184.7,51L184.7,51z"/>
	<path class="st1" d="M199.9,49.2h-2.1V51h2.3v0.5h-3v-4.9h2.9v0.5h-2.2v1.6h2.1V49.2z"/>
	<path class="st1" d="M208.9,46.7c0.3-0.1,0.8-0.1,1.3-0.1c0.7,0,1.2,0.1,1.5,0.4c0.3,0.2,0.4,0.6,0.4,0.9c0,0.6-0.4,1.1-1,1.2l0,0
		c0.4,0.1,0.6,0.5,0.8,1c0.2,0.7,0.3,1.2,0.4,1.4h-0.7c-0.1-0.1-0.2-0.6-0.3-1.2c-0.2-0.7-0.4-0.9-1.1-1h-0.6v2.1h-0.7V46.7z
		 M209.5,48.9h0.7c0.7,0,1.2-0.4,1.2-0.9c0-0.6-0.5-0.9-1.2-0.9c-0.3,0-0.6,0-0.7,0.1V48.9z"/>
</g>
</svg>
